<?xml version="1.0" encoding="UTF-8" standalone="no"?>
<!-- Created with Inkscape (http://www.inkscape.org/) -->

<svg
   width="437.78574"
   height="500.62756"
   viewBox="0 0 115.83081 132.45771"
   version="1.1"
   id="svg5"
   inkscape:version="1.2.2 (b0a8486541, 2022-12-01)"
   sodipodi:docname="nota-al-pie.svg"
   xmlns:inkscape="http://www.inkscape.org/namespaces/inkscape"
   xmlns:sodipodi="http://sodipodi.sourceforge.net/DTD/sodipodi-0.dtd"
   xmlns="http://www.w3.org/2000/svg"
   xmlns:svg="http://www.w3.org/2000/svg">
  <sodipodi:namedview
     id="namedview7"
     pagecolor="#ffffff"
     bordercolor="#000000"
     borderopacity="0.25"
     inkscape:showpageshadow="2"
     inkscape:pageopacity="0.0"
     inkscape:pagecheckerboard="0"
     inkscape:deskcolor="#d1d1d1"
     inkscape:document-units="mm"
     showgrid="false"
     inkscape:zoom="1.4378814"
     inkscape:cx="165.17357"
     inkscape:cy="251.75929"
     inkscape:window-width="1920"
     inkscape:window-height="1011"
     inkscape:window-x="0"
     inkscape:window-y="0"
     inkscape:window-maximized="1"
     inkscape:current-layer="text113" />
  <defs
     id="defs2" />
  <g
     inkscape:label="Layer 1"
     inkscape:groupmode="layer"
     fill="currentColor"
     id="layer1"
     transform="translate(-9.8179303,-1.5044784)">
    <g
       aria-label="[1]"
       id="text113"
       style="font-size:107.384px;stroke-width:8.94866">
      <g
         id="g171"
         transform="matrix(0.83216287,0,0,0.83216287,-6.6118266,-9.1927598)">
        <path
           d="M 56.495994,172.02756 H 19.743439 V 36.229986 h 36.752555 v 16.04031 H 39.521296 V 155.98726 h 16.974698 z"
           style="font-weight:bold;stroke-width:12.9776"
           id="path416" />
        <path
           d="M 102.1952,85.129571 H 86.91019 V 43.323542 q 0,-1.720829 0,-4.251461 0.101226,-2.530631 0.202452,-5.263713 0.101225,-2.733081 0.20245,-4.858812 -0.506127,0.607352 -2.226956,2.226955 -1.619604,1.518379 -3.036757,2.733082 L 73.750908,40.59046 66.361464,31.378961 89.643273,12.854741 H 102.1952 Z"
           style="baseline-shift:super;stroke-width:12.9776"
           id="path419" />
        <path
           d="m 122.18335,155.98726 h 16.9747 V 52.270296 h -16.9747 v -16.04031 h 36.75256 V 172.02756 h -36.75256 z"
           id="path422"
           style="stroke-width:12.9776" />
      </g>
    </g>
  </g>
</svg>
